discovr_07 - Associations – Learning | Assessment | Technology
…
psychologist uses a questionnaire to assess state anxiety related to exams (EAQ)

scale produced a measure of anxiety scored out of 100

anxiety was measured before the exam, and the percentage grade on the exam was recorded

also measured the number of hours spent revising Data are in

exam_tib

# A tibble: 103 × 5
   id    revise exam_grade anxiety sex   
   <fct>  <dbl>      <dbl>   <dbl> <fct> 
 1 1          4         40    86.3 Male  
 2 2         11         65    88.7 Female
 3 3         27         80    70.2 Male  
 4 4         53         80    61.3 Male  
 5 5          4         40    89.5 Male  
 6 6         22         70    60.5 Female
 7 7         16         20    81.5 Female
 8 8         21         55    75.8 Female
 9 9         25         50    69.4 Female
10 10        18         40    82.3 Female
# ℹ 93 more rows
…
All robust correlations (percentage bend) are less than raw, though all are significant at \(p<0.001\)

Spearman’s correlation coefficient

data from World’s Best Liar competition

want to know if creativity impacts lying ability

position data (1st, 2nd, etc) is ordinal, so Spearman’s correlation coefficient should be used

Data are in

liar_tib

# A tibble: 68 × 4
   id    creativity position novice          
   <chr>      <dbl>    <dbl> <fct>           
 1 lnwe          53        1 First time      
 2 vxob          36        3 Previous entrant
 3 qpli          31        4 First time      
 4 pwsq          43        2 First time      
 5 xafq          30        4 Previous entrant
 6 njra          41        1 First time      
 7 lxty          32        4 First time      
 8 dxcw          54        1 Previous entrant
 9 uxgp          47        2 Previous entrant
10 dvew          50        2 First time      
# ℹ 58 more rows
…
