dsus_18 - Exploratory Factor Analysis – Learning | Assessment | Technology
…
raq_18: R always crashes when I try to use it

raq_19: Everybody looks at me when I use R

raq_20: I can’t sleep for thoughts of eigenvectors

raq_21: I wake up under my duvet thinking that I am trapped under a normal distribution

raq_22: My friends are better at R than I am

raq_23: If I am good at statistics people will think I am a nerd

raq_tib

# A tibble: 2,571 × 24
   id    raq_01 raq_02 raq_03 raq_04 raq_05 raq_06 raq_07 raq_08 raq_09 raq_10
   <chr>  <dbl>  <dbl>  <dbl>  <dbl>  <dbl>  <dbl>  <dbl>  <dbl>  <dbl>  <dbl>
 1 157lk      3      1      3      4      2      4      3      3      3      2
 2 k3xjh      2      5      3      3      4      4      5      4      4      3
 3 832x6      4      5      3      3      3      4      5      4      3      4
 4 6dyt5      4      4      4      3      4      4      4      3      2      2
 5 w4upu      4      2      5      4      2      3      2      5      4      5
 6 9432i      2      3      4      3      4      2      3      2      3      2
 7 x03sh      2      4      5      5      3      3      4      3      3      3
 8 12v15      4      3      4      3      5      4      5      4      3      5
 9 46y22      3      5      5      1      3      4      4      3      5      3
10 1iqc4      2      5      3      2      4      5      5      5      4      4
# ℹ 2,561 more rows
# ℹ 13 more variables: raq_11 <dbl>, raq_12 <dbl>, raq_13 <dbl>, raq_14 <dbl>,
#   raq_15 <dbl>, raq_16 <dbl>, raq_17 <dbl>, raq_18 <dbl>, raq_19 <dbl>,
#   raq_20 <dbl>, raq_21 <dbl>, raq_22 <dbl>, raq_23 <dbl>

24 variables including the ID

we don’t need the id in analyses so create a new tib without it

raq_items_tib <- raq_tib |> 
  dplyr::select(-id)
raq_items_tib

# A tibble: 2,571 × 23
   raq_01 raq_02 raq_03 raq_04 raq_05 raq_06 raq_07 raq_08 raq_09 raq_10 raq_11
    <dbl>  <dbl>  <dbl>  <dbl>  <dbl>  <dbl>  <dbl>  <dbl>  <dbl>  <dbl>  <dbl>
 1      3      1      3      4      2      4      3      3      3      2      2
 2      2      5      3      3      4      4      5      4      4      3      4
 3      4      5      3      3      3      4      5      4      3      4      4
 4      4      4      4      3      4      4      4      3      2      2      2
 5      4      2      5      4      2      3      2      5      4      5      4
 6      2      3      4      3      4      2      3      2      3      2      1
 7      2      4      5      5      3      3      4      3      3      3      3
 8      4      3      4      3      5      4      5      4      3      5      3
 9      3      5      5      1      3      4      4      3      5      3      3
10      2      5      3      2      4      5      5      5      4      4      4
# ℹ 2,561 more rows
# ℹ 12 more variables: raq_12 <dbl>, raq_13 <dbl>, raq_14 <dbl>, raq_15 <dbl>,
#   raq_16 <dbl>, raq_17 <dbl>, raq_18 <dbl>, raq_19 <dbl>, raq_20 <dbl>,
#   raq_21 <dbl>, raq_22 <dbl>, raq_23 <dbl>
…
