SIDS Ch 1 – Learning | Assessment | Technology
…
The following objects are masked from 'package:stats':

    filter, lag

The following objects are masked from 'package:base':

    intersect, setdiff, setequal, union

library(nycflights23)
library(knitr)
library(ggplot2)

flights

# A tibble: 435,352 × 19
    year month   day dep_time sched_dep_time dep_delay arr_time sched_arr_time
   <int> <int> <int>    <int>          <int>     <dbl>    <int>          <int>
 1  2023     1     1        1           2038       203      328              3
 2  2023     1     1       18           2300        78      228            135
 3  2023     1     1       31           2344        47      500            426
 4  2023     1     1       33           2140       173      238           2352
 5  2023     1     1       36           2048       228      223           2252
 6  2023     1     1      503            500         3      808            815
 7  2023     1     1      520            510        10      948            949
 8  2023     1     1      524            530        -6      645            710
 9  2023     1     1      537            520        17      926            818
10  2023     1     1      547            545         2      845            852
# ℹ 435,342 more rows
# ℹ 11 more variables: arr_delay <dbl>, carrier <chr>, flight <int>,
#   tailnum <chr>, origin <chr>, dest <chr>, air_time <dbl>, distance <dbl>,
#   hour <dbl>, minute <dbl>, time_hour <dttm>
…
