discovr_08 - General Linear Model – Learning | Assessment | Technology
…
Show the code
album_tib

# A tibble: 200 × 5
   album_id adverts sales airplay image
   <chr>      <dbl> <dbl>   <dbl> <dbl>
 1 aox1foms    10.3   330      43    10
 2 u453js2i   986.    120      28     7
 3 pie89xnr  1446.    360      35     7
 4 u2k5a0df  1188.    270      33     7
 5 t4699ux3   575.    220      44     5
 6 s4h49cu2   569.    170      19     5
 7 1235a8sf   472.     70      20     1
 8 p2v24p5k   537.    210      22     9
 9 4fbjg024   514.    200      21     7
10 e9w6usdb   174.    300      40     7
# ℹ 190 more rows
…
advertising budget significantly predicted album sales \(\hat{b}=0.08[0.07, 0.10], t(196)=12.26, p>.001\)

airplay significantly predicted album sales \(\hat{b}=3.37[2.82, 3.92], t(196)=12.12, p<.001\)

band image significantly predicted album sales -> \(\hat{b}=11.09[6.28, 15.89], t=4.55, p<.001\)

Unguided Example

Metal and mental health

Show the code
metal_tib

# A tibble: 2,506 × 2
      hm suicide
   <dbl>   <dbl>
 1    10       7
 2    10      11
 3    10       8
 4     4      14
 5    10      13
 6     8      12
 7     8       7
 8     5      15
 9     8       7
10     9      10
# ℹ 2,496 more rows
…
As love of heavy metal increases, suicide risk decreases

because the \(\hat{b}\) value is negative (-.0612)

CautionAs listening to heavy metal increases by 1 unit, by how much does suicide risk change?

-0.612 units

Predicting Social Anxiety

Show the code
soc_anx_tib

# A tibble: 134 × 4
    spai   iii   obq tosca
   <dbl> <dbl> <dbl> <dbl>
 1    26 56.5   4.43  4.18
 2    51 16.1   2.03  4.20
 3    33 37.4   2.59  3.25
 4   106 16.7   4.84  4.07
 5    25  5.16  1.76  3.80
 6   109 36.0   2.13  4.25
 7    39 34.5   2.01  4.95
 8   134 18.0   1.76  4.52
 9    43 12.9   2.29  3.59
10    57  7.10  3.20  3.64
# ℹ 124 more rows
…
WarningAll things considered do you think there are outliers?

No, the appropriate proportion of cases have standardized residuals in the expected range and no case has a value grossly exceeding 3.

Something similar with Cook’s distance…we can filter the tibble to look at cases with cooksd>1, or sort the tibble in descending order using arrange()

also use select() so we only see Cook’s value and case numbers

Show the code
album_full_rsd |> 
  dplyr::arrange(desc(.cooksd)) |>
  dplyr::select(case_no, .cooksd)

# A tibble: 200 × 2
   case_no .cooksd
     <int>   <dbl>
 1     164  0.0708
 2       1  0.0587
 3     169  0.0509
 4      55  0.0404
 5      52  0.0332
 6     100  0.0314
 7     119  0.0308
 8      99  0.0281
 9     200  0.0251
10      47  0.0241
# ℹ 190 more rows
…
Show the code
soc_anx_obq_rsd |> 
  dplyr::filter(abs(.std.resid) >= 3.0) |>
  dplyr::select(case_no, .std.resid, .resid) |> 
  dplyr::arrange(.std.resid)

# A tibble: 0 × 3
# ℹ 3 variables: case_no <int>, .std.resid <dbl>, .resid <dbl>

Show the code
soc_anx_obq_rsd |> 
  dplyr::arrange(desc(.cooksd)) |>
  dplyr::select(case_no, .cooksd)

# A tibble: 134 × 2
   case_no .cooksd
     <int>   <dbl>
 1       8  0.0724
 2      45  0.0497
 3      14  0.0397
 4      40  0.0373
 5      16  0.0330
 6      87  0.0304
 7     127  0.0289
 8       1  0.0285
 9       4  0.0274
10      12  0.0268
# ℹ 124 more rows
…
