discovr_06 - The Beast of Bias – Learning | Assessment | Technology
…
ℹ Use `spec()` to retrieve the full column specification for this data.
ℹ Specify the column types or set `show_col_types = FALSE` to quiet this message.

download_tib <- download_tib |> 
dplyr::mutate(
    ticket_no = as.character(ticket_no),
    gender = forcats::as_factor(gender) |>
      forcats::fct_relevel("Male", "Female", "Non-binary")
  )

download_tib

# A tibble: 810 × 5
   ticket_no gender day_1 day_2 day_3
   <chr>     <fct>  <dbl> <dbl> <dbl>
 1 2111      Male    2.64  1.35  1.61
 2 2229      Female  0.97  1.41  0.29
 3 2338      Male    0.84 NA    NA   
 4 2384      Female  3.03 NA    NA   
 5 2401      Female  0.88  0.08 NA   
 6 2405      Male    0.85 NA    NA   
 7 2467      Female  1.56 NA    NA   
 8 2478      Female  3.02 NA    NA   
 9 2490      Male    2.29 NA    NA   
10 2504      Female  1.11  0.44  0.55
# ℹ 800 more rows
…
specify the variables using day_1:day_3

scores in these columns represent hygiene scores, so we could use hygiene as the variable to contain values after restructuring

columns we are transforming represent different days at the festival, so we can use day as the name of the variable created to contain column names

download_tidy_tib <- download_tib |>  # create a new object called `download_tidy_tib`
  tidyr::pivot_longer(                              # use the `pivot_longer()` function from `tidyr`
  cols = day_1:day_3,                           # specify columns `day_1:day_3` for restructuring
  names_to = "day",                             # names of the columns be placed in a variable called `day`
  values_to = "hygiene",                        # values of the columns placed in a variable called `hygiene`
)
download_tidy_tib                               # display the new object

# A tibble: 2,430 × 4
   ticket_no gender day   hygiene
   <chr>     <fct>  <chr>   <dbl>
 1 2111      Male   day_1    2.64
 2 2111      Male   day_2    1.35
 3 2111      Male   day_3    1.61
 4 2229      Female day_1    0.97
 5 2229      Female day_2    1.41
 6 2229      Female day_3    0.29
 7 2338      Male   day_1    0.84
 8 2338      Male   day_2   NA   
 9 2338      Male   day_3   NA   
10 2384      Female day_1    3.03
# ℹ 2,420 more rows
…
use stringr

download_tidy_tib <- download_tidy_tib |>   # recreates `download_tidy_tib` from itself
   dplyr::mutate(                                             # uses `dplyr::mutate` to recreate the variable `day`
    day = stringr::str_to_sentence(day) |> stringr::str_replace("_", " ")                                                # uses `stringr::str_to_sentence` to capitalize the d, then `str_replace()` to find the underscore and replace it with a space
  )

download_tidy_tib <- download_tidy_tib |> 
   dplyr::mutate(
    day = stringr::str_to_sentence(day) |> stringr::str_replace("_", " ")
  )
  download_tidy_tib

# A tibble: 2,430 × 4
   ticket_no gender day   hygiene
   <chr>     <fct>  <chr>   <dbl>
 1 2111      Male   Day 1    2.64
 2 2111      Male   Day 2    1.35
 3 2111      Male   Day 3    1.61
 4 2229      Female Day 1    0.97
 5 2229      Female Day 2    1.41
 6 2229      Female Day 3    0.29
 7 2338      Male   Day 1    0.84
 8 2338      Male   Day 2   NA   
 9 2338      Male   Day 3   NA   
10 2384      Female Day 1    3.03
# ℹ 2,420 more rows
…
download_tib <- download_tidy_tib |> 
  tidyr::pivot_wider(
  id_cols = c(ticket_no, gender),
  names_from = "day",
  values_from = "hygiene",
)
download_tib

# A tibble: 810 × 5
   ticket_no gender `Day 1` `Day 2` `Day 3`
   <chr>     <fct>    <dbl>   <dbl>   <dbl>
 1 2111      Male      2.64    1.35    1.61
 2 2229      Female    0.97    1.41    0.29
 3 2338      Male      0.84   NA      NA   
 4 2384      Female    3.03   NA      NA   
 5 2401      Female    0.88    0.08   NA   
 6 2405      Male      0.85   NA      NA   
 7 2467      Female    1.56   NA      NA   
 8 2478      Female    3.02   NA      NA   
 9 2490      Male      2.29   NA      NA   
10 2504      Female    1.11    0.44    0.55
# ℹ 800 more rows

in this case, having the variable names in sentence case (Day 1), is inconvenient because we will always have to put them in backticks

rename using dplyr::rename_with

download_tib <- download_tib |> 
  dplyr::rename_with(.cols = starts_with("Day"), # finds all columns w/i download_tib that begin with the word `Day'
     .fn = \(column) stringr::str_replace(string = column, # creates a lambda or anonymous function that will be applied to the variables that begin with Day
        pattern = "Day ",  # with next line, tells the function what to do
        replacement = "day_")
)

download_tib

# A tibble: 810 × 5
   ticket_no gender day_1 day_2 day_3
   <chr>     <fct>  <dbl> <dbl> <dbl>
 1 2111      Male    2.64  1.35  1.61
 2 2229      Female  0.97  1.41  0.29
 3 2338      Male    0.84 NA    NA   
 4 2384      Female  3.03 NA    NA   
 5 2401      Female  0.88  0.08 NA   
 6 2405      Male    0.85 NA    NA   
 7 2467      Female  1.56 NA    NA   
 8 2478      Female  3.02 NA    NA   
 9 2490      Male    2.29 NA    NA   
10 2504      Female  1.11  0.44  0.55
# ℹ 800 more rows
…
