discovr_02 - Summarizing Data – Learning | Assessment | Technology
…
subsequent operations are conducted on the groups

count how many scores fall into each category

summarize() creates a variable called frequency that counts how many items are in each group created by group_by()

Show the code
freq_tbl <- ice_tib |>
  dplyr::group_by(upload_day) |> 
  dplyr::summarise(
    frequency = n()
  )
freq_tbl

# A tibble: 56 × 2
   upload_day frequency
        <dbl>     <int>
 1         21      2000
 2         22      2000
 3         23      4000
 4         24      4000
 5         25      8000
 6         26      8000
 7         27     10000
 8         28     16000
 9         29     20000
10         30     29000
# ℹ 46 more rows
…
if we want to split the variable upload_day into bins of 4 days…

ggplot2::cut_width(upload_day, 4)

combine this with dplyr::mutate() to create a new variable called days_group

Show the code
gp_freq_dist <- ice_tib |> 
  dplyr::mutate(
    days_group = ggplot2::cut_width(upload_day, 4)
    )
gp_freq_dist

# A tibble: 2,323,000 × 2
   upload_day days_group
        <dbl> <fct>     
 1         34 (30,34]   
 2         36 (34,38]   
 3         31 (30,34]   
 4         30 (26,30]   
 5         33 (30,34]   
 6         38 (34,38]   
 7         36 (34,38]   
 8         46 (42,46]   
 9         45 (42,46]   
10         31 (30,34]   
# ℹ 2,322,990 more rows
…
